1-60 [257961438348725619619483257523618794184579362796342185931257846862194573475836921] [011000011101000000000000101100001000000010000001001101000000000100110000000001011]
2-50 [798256413432981576651473289975814632146732958283695741829347165317569824564128397] [001001000100000011110010001011011000010001101001110010000000011010110010100101100]
3-54 [289741653516983247374256189831567492925314768467829531153692874692478315748135926] [001101000100010011001001110000000001000010010000000001001110010110100001101010100]
4-63 [613589274789342156245167938867421395452973681931856742596718423328694517174235869] [000110001000100110000001000100000000000000100100010010000000010100000000000001111]
5-53 [314265978689173425275489361947536182132847596568921743796312854453698217821754639] [101010010000100001010100101001001100000101110011101000000000000011010000100010101]
6-62 [492673158683915274751248639827431596946752381135869427314597862269384715578126943] [110000000010010110000000000010000000000000000011000101100111000000100000100100100]
7-60 [964582173328741965517693284451268397796354812283917546635179428879425631142836759] [100000001010000001010110010000100000000000000010010011000000010111000001000001110]
8-63 [819457326254936781673821954386149572597682413421573698942315867735268149168794235] [100010000001000100001000000000000100000000000110000010001100101100000101101000000]
9-54 [859164273231795648467823159345281967982476315716539824128347596673952481594618732] [000001000100101001001101010000110100100000010100011010000010111010000001101000001]
10-60 [581436972234197856976582413795863124468251397123749685657318249312974568849625731 [000000001010011100000000010000000100000011000110000011110001000100010101000000001
11-60 [367542198925186374814379256639724815758931462142865739293457681586213947471698523 [100000001000001000000100110010000010010001000100101000100010001001000101010010000
12-53 [358927641694158327712463589873549216546812793129736854935274168287691435461385972 [010100000000011001000010111100100000001000010100010011101100010101100001011000100
13-65 [725364198941728635836951427473615289218493576569872341352189764684537912197246853 [001000000001000110000000000000000001000100010010000100000110100000000000011000101
14-55 [231856479569437182478192635953621847142578963786943521897265314624319758315784296 [000100000000101011110001010010000111110001001000000011100000000100100000010110100
15-54 [679814325328765914514329786967238451251946837483571692896452173745183269132697548 [101001000000100001000011100010000110100100011101000100101000011000100101000100010
16-65 [184239657923756841576814329742398165639521784815647932357182496291463578468975213 [100000010000000010110000010000110000000100001100000001000001100000001000000000001
17-53 [512893476678241395943675218856134927394752681127986543485327169269518734731469852 [010010100110000100001100011111000001100110001100000000010101010001000001001110000
18-59 [658137294794862351231495876325918647486753129917246538579381462162574983843629715 [100010110100011000000010000001100000001011000100100100101000100010001100000000000
19-54 [739461825265798341814325796571289463428613957693574182182957634357846219946132578 [100100010000000001100111000011001100101010001000010000001010100001100110100100100
20-55 [956812437281437956473695812327958641148726593569143728892561374634279185715384269 [100100001100001101001011010001001000001010000010000001000001000001010101110010010
21-59 [395814276768952413412736958187623549936547821524198637643279185259381764871465392 [110000000000000011100011000011001000010101000000000001010001110100000010100000100
22-58 [219456873863279145547318692496831527152947368378625914784163259635792481921584736 [000001100100001000000110110000100111000001100010000000000010001100111000100000010
23-54 [329684715564271893718359246832795164451836927976412358685123479243967581197548632 [011000000001100100010100011000011101000000000100000011000100110101000110101100001
24-62 [582367914963451827147928635294136758731589246856742193329874561675213489418695372 [100000000101000000010010010001100100000000000000000000001000001000101011110000011
25-61 [729548136356719842418623795931875264264931587875462319593284671682197453147356928 [000010000010110100000100001111000010000000000001000010100100000000001110010010000
26-54 [274369581851274369963815724319682457526947138487531296648723915135498672792156843 [000011000000010010100001101100001100100000010101000101000001001011010100001110001
27-59 [946517823321648975587923461453269187178354296269871534895436712734192658612785349 [000100001100001100000100000000010000010110000101000001101000000101001000000100111
28-61 [297413586514876329863592147358649712921387654476251938732168495149725863685934271 [000100001010000101100010001000001000111001000010000100000000110001000000000010001
29-57 [391724586852136947476859312564381729923647158718592463639418275247965831185273694 [011001100100010000010110001000000000000100010101100010011100010000011000000010001
30-59 [713629458982354671465178932697485123234917586158236749879563214541892367326741895 [000100000000001000100010100001010001011000100100000011100000010001100000101010100
31-59 [963182547748563912251479386439651728517824693682397451874916235325748169196235874 [000100010000100000010000001100011000000011101001001000000010000011000011100010010
32-64 [834197256675382149291564738589431627463278915712659384956813472148726593327945861 [000111100100000010001010010001000000000000000000110000100100100100000001000000000
33-54 [274638951196752483358491627963874215815263794427915836589147362732586149641329578 [100000000100000001001000111011011000000001011010000100001111000111000000110101000
34-55 [281543697697182534435796812372615489148239765569874123753968241824351976916427358 [000100011000100010101010100000000101010001110001001000110100001001000011010100000
35-63 [954172386837596412621843795548321967712659843369784521286935174475218639193467258 [010000100001000100101000000000010000100000001100110010000101100000000000000000101
36-58 [289536417674891523315742896743965182561328749928417635436179258152683974897254361 [000001010100100101100000100101000100000000001010000010001010001000110000100100101
37-53 [317465928846219357529378614153946872794582163268137495681723549475891236932654781 [001011100100000000101000101000100110001010000010010011010001000100011001011001100
38-59 [691835247872941365543672891985723416167458932234196578758369124419287653326514789 [000000000100001010000111010000000000001000110001010000110000011100001101000101000
39-62 [257349861436281597981576324395168742862734915174925638749813256518692473623457189 [010100011000000100000000100001100000100000110001000010000110100000100010000010000
40-59 [387219456562784139914635287845127693123896574679543812256978341738461925491352768 [000000100010011100000000111000110000100000100010010000100001000101010000100101000
41-62 [817354269634729518259618743185976324346582197972143856793261485461835972528497631 [000000000001001110000100100110000011000000001000000101000100000001000010000100110
42-64 [138567249592841367476293158245738916719426583863915472321684795654379821987152634 [000001000000000110110100100011000000100000100100000100000000000000000010001001001
43-54 [274196835561283794938475126845729361627531489193648257386914572719852643452367918 [101000010001110000001001011000101000011000001010000100110001000010101010100100010
44-55 [175243869268179435493685172724836591589714623631592748852967314947351286316428957 [001000000100100000001101010010001100010100100111000000000110110010010011100000100
45-57 [893164572741285936652793184178329465569478213234516897385641729417932658926857341 [011000000001100011000001001001000111010010100100011000000000000101100001000000110
46-57 [632917548591834267748265193956472381874391652213586479165728934327649815489153726 [001001000001010101110000011000001000000101000000111001001000001110000100010010000
47-59 [486321759971854362235976148629487531317592684548163297853719426164238975792645813 [100001010010000100001111000110000000001011000000110000000000100000101001100000010
48-55 [672819534395746128814532976251394687483167259769285341127658493546973812938421765 [000111100010000000100010000100001000010100011000000010001000111110100100110110000
49-59 [397815426645729831218346795873594612426173958951682374732461589184957263569238147 [001011100000100000000010100000000100001001010010010000101100001001100001010000001
50-59 [529431867461798235873562419348629571196857342752143986985376124614285793237914658 [100000000001001100010010110000001001110100001101001000100000001000010001000000010
51-48 [791465328865123947423798165586279431139584276274316589312857694648931752957642813 [011010010101101001000000110000101011111011000010000001110110010100000100110011000
52-47 [742596138583412697196873452654731829239658714817924563471369285325187946968245371 [010011001001110101100100110010000110101001101100100001110101001110100000011000000
53-43 [562418397398275416714396285936542871257861943481937562875129634649753128123684759 [001001010111000000100111001101001110000110111011000001001100110100011110010101101
54-45 [563428971724691835918573624847265319351849267692317548275186493489732156136954782 [101101100001100010010101110000011111000000110010101000111000001111010000110011001
55-45 [928436715461257398573891462152943876387612549694578123745329681819765234236184957 [000001111111010100010110010100010010110100100001100011001110110111000100011010000
56-48 [625481739748932615391756284916543872253817496874629153189265347532174968467398521 [110010001011000101111001010000110100100101101000101010000010010010010000101011100
57-48 [962187435785324916314965287543718629278649153691532874439271568826453791157896342 [101000001000001011100110011101010001110110010010010000101011100001101011000001000
58-46 [517934826483256917926781354142573698658419273739628541864192735395847162271365489 [010000010010001111001101010000110000110001110101010011110010101001010100010110001
59-41 [126753849984162537753894621218976354395248716647531298561389472432617985879425163 [010001011100001101100100110001111010001101001111100100001000111100100111111011000
60-44 [927516834638974125145832976573198642869247351412365789281759463796423518354681297 [001011110010001000100110011010100111000111110001000111110110000110110001010000001
61-44 [396518724821647593547923861419735286783462915265189347934251678178396452652874139 [011110000000011101101101010000000110111000010100110101000001101110110001100111100
62-45 [835149726461732589792865341186324957574986132329571864943618275217453698658297413 [100101000001001111101001101100000011010010010110110100011110100010000001001111100
63-48 [582637914617294385493851762345769821869412537271385496934176258756928143128543679 [100000111000010100100000111010101100000111000100000110101101010011101010001001001
64-45 [518927463942163587736584219395612874864795321127438695481376952659241738273859146 [010011000110100001001000100111100000101101001100101110101000100001101101010011110
65-43 [632891574879254136541763829168947352957632481423185967315426798294378615786519243 [000000111110100100110001010101100110001010110001111100110101010101011001011100000
66-44 [851347692249168573637952184982714365714635829365829741523476918178293456496581237 [001000010011100000101011100100110101110100011011110010100101001010001010101010101
67-42 [863149257125736498974582361791465832342891576658273149287954613539618724416327985 [101100110101010000010101011101011100010101011001110110001100100010001011100011100
68-47 [238796514174385296659241387812657439345129768967438125793562841481973652526814973 [011001001001110001000010110100101010010000000111000110001101011001100110110101000
69-47 [127364895943758162568129734486217953231495678759683241614932587872546319395871426 [100110011010000000100010011100100100011111000100100011010010001101010100010101101
70-49 [185673492346219578297548316512497683468351927973862154639725841821934765754186239 [101010010011011010010000100001100100110000000010001000100011100001101101110001110
71-42 [679842315815963247342715698936428571584137926127596834763284159251679483498351762 [010010110000111000001000111000101101010101011101111000101110100111001010011000110
72-38 [126785943385469172794231568957312684263548791418976325672154839841693257539827416 [010111001010110110100011011111001100010110011100100100011011100101100110101001011
73-42 [932816457817245963456379821189732546564981372723654198641528739398467215275193684 [000000111110100110010110001000011001101001001011110100110011010100101110010011011
74-39 [576129438398574612214368579149857263637492851852613794983746125465231987721985346 [101010011001100101100011110100011011001001110110000101011101010101110100010111001
75-41 [713284956258369741469157283926531874341798625875642319137925468682413597594876132 [010101101110100000001010101100110110011001001010101010011001101101100110101001011
76-43 [137956284492318675865724193259431867613872549748695321571269438986143752324587916 [010011000101100011001010110000010101000100101010101011110001011011110100100111100
77-39 [532461798479582163816937524195843276768215349324796815243159687957628431681374952 [011101100001010100001110011110011010101001110010110110111101000100100101110001011
78-42 [534891267897246153612573948486127539721359684359468712945682371178935426263714895 [101100011010101110100111001110100000000110100010011010101010101100000111010011011
79-43 [231765498974381256685429173829657314546213789317948562453196827192874635768532941 [100010011110011100001100110111110000011100010001010001110101100000101100110010011
80-37 [729436851541798236683152749167284395458973612932615478314869527895327164276541983 [110001101111000100001001111001111001101111000000111011110110010011010110100100111
81-41 [463982751815647923297513468389765142721498536654231879178356294932174685546829317 [010000111010011010011010010001110101100101000000101111100111001011001101011110010
82-43 [735428196861579234942136758423965871679381425518742369387694512256813947194257683 [001110110101100010110011100010010111001001000100101001000000111101110100001110011
83-40 [895634721721895463463127958512463897374958612689712534938246175157389246246571389 [011010011000010111010011100111100010101100000110011100100101011111001100001111010
84-43 [624159378178362549395847216239478165451926837786513924962781453847235691513694782 [111101000100101110010010111001100111110001001110000100100011011001011001000010010
85-38 [276591843518734926943286571827369415165427398439815267752648139381972654694153782 [000101011101110100010111001000111101101010110011100100111001010110010101111001010
86-38 [593412678478563921261879453685241739739685214124937586912354867847126395356798142 [001001001101110100010101110001011110110110100111000011101111000000011111110100011
87-38 [169237458348695172572814396654781923213459867987362541725148639431976285896523714 [001110011111100100110110001010000111110101100001001110111001010101011001000111011
88-41 [385492176921786453746351829653247981198563742274918635812634597567829314439175268 [011100000011010101011010110001100100101001011110010010010111010100101110100111100
89-40 [948756312326198754517243968132865497695472183874931625783519246269384571451627839 [111001100011100011100101110001111100100110001111100001011010000100010110010011101
90-40 [267549183391867542485123769632418957149275836758936214823691475574382691916754328 [010110010000110111001011001111010100100101010110000110110101100101101010001011101
91-39 [789635421254791683163248975516324798498567132327189546835976214672413859941852367 [011001101100110110000101001010100111110001110011010101100011011101010010110111000
92-38 [681293475543687912297541836768315249952476183134928657315862794476159328829734561 [010101010101110100110100101100110010011011001101000111010001111101010011011110100
93-38 [618792345324615798579834126182476539945183672763529481857241963496358217231967854 [010011011010101101101000010001001111000110111011101100101010101010111010111110000
94-38 [491736825236485719857291634185947362379562148642813957514379286968124573723658491 [001011110011100011110101010011011001000100111111011000110011010100100101101110100
95-40 [218963475754128693396475812672831954149652387835749126461597238927384561583216749 [100001011011011010000011111111101000101100011000110101010110000101011100101100110
96-41 [754163289163982457829745163916538742542617938378294615281376594637459821495821376 [010111100001001011000101010100010101110011001111000011010111010110110100101000101
97-41 [742593816158764923639821574271345689865972341493618257324156798916287435587439162 [101000100010011001111010001001010111110101010110110001010110011000101010101100110
98-41 [792148356568379142413265879971624538634857291825913764356481927289736415147592683 [001110011011010001001101110110101010100110100101000000011001101010011011010101011
99-39 [419867532752431869836925714187342695594786123263159478921574386648213957375698241 [010110101111000100101001010000111101110010011110010110001011110001001011011101001
100-38 [825974613791356824634182795387561249452793186169248537973815462548629371216437958 [100111100001111100110001101011000011101001011110010011011100010011010110100011101
101-34 [319768245524391687786254319971832456653419872842576193168925734297143568435687921 [110111010001101011100000111111001010011111001111100011110101100011000111101110100
102-33 [524679381861423975937815264213964758496587132785132496378251649642798513159346827 [111010011010100001100011111011111100100111011110101010100110111011111010110001100
103-32 [691873542254169873783452691372986154468715239915324768146598327829637415537241986 [000111101001110110101100111110101000111111000011100111111001010110010111111001110
104-35 [281397564753864219469152873195683427326749185847521396672415938518936742934278651 [010100010111101100111001110000101111011001100110110000101011101111011001101110101
105-33 [984725136253861947716943825479652381138479562625138479341297658862514793597386214 [101101011110011011111111000100001001011011110100111100101100111001010111011000111
106-34 [278349615516287943394651278187964352629135487435728196961573824743812569852496731 [101000110101101100110100110011111000110110011101101110111001101001011101010111010
107-34 [816423759473859162925617348731592486269748513548361297384176925197285634652934871 [011111001111001101110111010110010110110100101101001011101110110001100011011100001
108-34 [139274586524186793867539412386415279241793658795628341653941827978352164412867935 [111011100011100111001011111110110011101000111010111101111110010101000101100010000
109-35 [485136927327598164691247538253789416148365792976421385812954673569873241734612859 [101011101110011011101010111011100111111101100010101100101100010000011000101111001
110-35 [315264798976158324482937615539412867247683159861795432628571943153849276794326581 [100111100101101110100100111011101001001010110110110001001001110111011001010111101
111-35 [739128546821564973546793821257946138394812657168357294485271369973685412612439785 [110100011010101110010111010111011100101001110111010101110010111001000100100111011
112-35 [659278341417953268823614957295847136761395824348126579536789412184562793972431685 [011001010100110011010001100100111101010111011111000111101101000110110101001111110
113-32 [621957384759384162348612579462138795915476238837295641174823956283569417596741823 [110000111101001011000111110101011101001110111110110001110111100011010110111100011
114-34 [437195286529386147168724539314957628685213794972468315751839462296541873843672951 [011001100011001101101011011100101011111101010110111001101100101110110000010110111
115-33 [587924136462371598391865724734659812819237645256418973123786459645193287978542361 [101001110111101100010011111111011001011110011110100100010110001100011110101111100
116-32 [391847256786125394524963817138479562275316489469258173953784621642591738817632945 [100111101111010110111001011011111010011101011011101011101110000000010101010111101
117-34 [834619725675482319129573864941765238387921456256348971713854692462197583598236147 [010001011111100011110110110111010110100100100111111000100111011011010100000111111
118-34 [451629837796138524238547196823754961549261378617983245962875413184396752375412689 [100101111011010111011010010101011100110101011010110101101001111100011001100111010
119-35 [479526138265318794813479625794853216658192347132764589541937862927681453386245971 [010011011100000100110110001111001101001000111101100111011101110111000111111011010
120-34 [549768213718235649632149857263584971957621384184397526876912435491853762325476198 [001011101110101110001100111100101110001101110100111011101000011101111000111010101
121-35 [416238579738159264952476813823597641591364728674812395147683952289745136365921487 [110001111101101011111100011010111101000111100100011110111000101101011011000000110
122-33 [538762149162849537749135862851276493273498615694513278986321754415987326327654981 [110101000001000110011001111100110111110110101111110010010111001100011111111011001
123-34 [453291768782546391619378245264839517531764829978125436147983652325617984896452173 [001101100111100100110001111001010011011110110101111001110110101111010001010011101
124-34 [453971862728645193169238754296154387584793216317826549975412638641387925832569471 [111000110011101001101110101010011111101011000100111101111101010010111011010000101
125-34 [973425816658731924421869537137684259862953741549217368394172685785346192216598473 [010010111101011000001011111110001111101110101011111010100111101110001101101100000
126-33 [251946783873521496694378125527194638938267514146835972482619357715483269369752841 [011101001111010101101001001010111110110111001100110111100001110110110110010110101
127-34 [729641358683592417514378926256719834978234165431865279862953741347186592195427683 [110111010111011001100000111011100101100111110110011011010011111101001111010010000
128-33 [841736259679582341352941786925417638164853927783269514516378492498625173237194865 [101101110011110010000011001011000111001011111110111001110111100111001101100100111
129-33 [214863579865279314739154628578312946346798152192645837953426781621587493487931265 [110011110100110001011011011011101110110110110001100101101101010110011001101111010
130-34 [478621935925483671613957842762819453394765128581342769259176384147538296836294517 [110000100110101011101101011011100111110001001110110010100011110011111001001111011
131-32 [798416532516932748342875691673148925284359167951627483169583274437261859825794316 [101100111110101101010111100111100110001010111011101011000011101111010011011110010
132-34 [975436218134872596268591374617325489543987621829614753452169837781243965396758142 [100110001111010011111000010110101101001010001101101110011111010110001111011101110
133-35 [583619742162547398749283561398125674674938215215764839857391426421876953936452187 [000111111101110100011101001110001011011001011001110101011110000010111100111001011
134-32 [312468975975231648846597213491673852627985134583124796239746581168359427754812369 [001111011101100110101011101011100111011110101101001101110011000110010011100111110
135-35 [739482651824516793561937428396725184145863279287149536412358967678291345953674812 [111110100100011101000111011011111010110100111011011100111010101100001001100000111
136-32 [821743596475926831369815742754239168193568427682174359948657213236481975517392684 [111110100001101111110110110110010111001001011011110001111101100010011111101010001
137-32 [345687912891532647672941538938475261154326879267198354423759186719863425586214793 [010110001110111001011100111111001101111011010100111101010100110001111100101001111
138-35 [691745382375628149824913765712869534548371926963452817286197453439586271157234698 [010101001000111110100001011011000101111100101111101100101010011111111000010111110
139-35 [971264835653819724842537196567381249419672583328945617796428351235196478184753962 [101001101011010111110011110010010111101010011010111011101000110111101000010110001
140-35 [251897463684253179379146825165382947932764581847519236728935614516478392493621758 [000110100010111110001101110100111000011010010110101011111010101100011111011101110
141-33 [861345279792618543354927681519786432438592167276431958625173894987264315143859726 [110001111001110111110010011111100101110111100101110110100001000010111010011110110
142-34 [385714629627893415941625873892431567163257984574986132758369241239148756416572398 [111001011100100100001111100111010011011101011000011101111100011001111110110110010
143-33 [843219675651437298297586134724963851519728346386154729175892463932641587468375912 [110111001011101101101010111100101111110001110101110010111101100001101011011000010
144-35 [697235148351468927482791356914672583563184792728359614146927835879543261235816479 [010000101101010111110011010101110101001110011101101101110001110011111100100011001
145-34 [638957421251486973974312865863294517417635298529871634382749156146523789795168342 [111111000001111101001001111110100101010000111010101111111001011011110100101101000
146-32 [495268137738451692612379584567194823281537469349826715173985246954612378826743951 [111011000111101000001011110110011101101100111101111001101110110000110011010101111
147-33 [936852714875341692214976583387569241691423857542718936428197365163285479759634128 [001011110111001110001010001101011110111100101000011101100111011001101111110110011
148-33 [891625437647839251325714968279168345584973126136542879963451782712386594458297613 [101111010001111101111100011001011111111101010100011101000111110000010100011100111
149-35 [768593214251478369943162785835649172697821543124357698316284957589736421472915836 [110001111000100101010110111111011001111011100100100110000111111110000010111001011
150-35 [953641278286357941174298653815769324492183567637425189741532896329876415568914732 [000111001111110010101010110111101000011100100011101011010101111101011010110010110
151-31 [238951467549678213176342598952814376413567829687239145824793651761485932395126784 [101011111001011110110111011010010001010111100110001111110101101111010101101011001
152-31 [287146359195783624436529871948267513623415987571938246864372195752691438319854762 [100111110110100011011111101111101011110101101110011010011100110001011011000111100
153-31 [849257316365184729721396485284935671976841532513672948657428193498513267132769854 [111101011101101001101011111111011100111110110110101100010100100011110001011010110
154-30 [274593186196478352583216749321859674958764213467321598812645937635987421749132865 [101011111111001111100011011001101001100111010001110111110101111110100101111001010
155-30 [693178452418532697725469381357984216261753849984621735542816973139247568876395124 [111111100111011101101001110101000100101100011111100111000111111011111100110110010
156-31 [861352749375914628924678135248569371139847256657231894486793512513426987792185463 [011100000100111110111111010111100111111001101110111011010001111011001011001110001
157-30 [694137285217485936853296174985672341726314598341859627468921753532768419179543862 [011110111011000111110011000011101111010111001111101110001101100110101110101110011
158-30 [493726815856431297127958463341569728679842351582317946915283674768194532234675189 [110111011111001111111100010100111111111101011101011011110010011011101001000101000
159-30 [932817564514693782768524391689345217351762849427189653296438175145276938873951426 [111010111011010110111010111100101111000011111010001011011010101101111101111101000
160-29 [462159738831267945795384612984621573256738491173495286617842359349516827528973164 [010111111111110101101001111110011111111111000110111110111000001111100111000001000
161-29 [826317459154892376793456821941235687375168942682749135468571293217983564539624718 [011011111110100000110111110001111111011111011101111011111110010101010100011000011
162-29 [345269871218347695769185243421738569983652417576914328692573184134896752857421936 [100111001111011011100111011110110111110111101110111110001101111110001100000110010
163-31 [678219534253746819914835762197682453385174296426593178732958641841367925569421387 [101110111101011111110110111011010001101101000111010101011100011001011111110011000
164-29 [945372861781946523623851497237195684569784132418623975176438259354269718892517346 [101011100101110011111001100011110111100110111011111101111001111110110001001001011
165-28 [219486735536197842748325961153748629862951374497263518321879456975614283684532197 [011110111111011101101111010110110111111101101100100011111010101111100100000101110
166-29 [732948516698315274154726983967834152283651497541279638479163825826597341315482769 [110011001111011101010100011101111010010010111100101110110111101011111110001111101
167-31 [426875139517923846398146527149368752853297461762514983634751298281439675975682314 [011011011111011101111010011100001010011111110011011010001101010111110110110110100
168-30 [759463128182795364463128795931254876648937512527681943376549281295816437814372659 [110101110100101101111111100011110111110011111101100101010011001000100111101111001
169-29 [485296371391857246762143859136574928278319564954682137543961782817425693629738415 [000011011111100111000010111111110001100111110111101001010111010001111111110011111
170-31 [684175239712493658593826147278349561149658372365712984437261895926587413851934726 [111111010010110011110110101010100110101001011101110001011011011010001111011011111
171-31 [784269513623145789519837624831726495956418372472593861348971256295684137167352948 [110110101100001111111110110110111110100101001010101011011111101101011010101010100
172-30 [381657429597142683426938715734891256169523847258764391942375168613289574875416932 [110001110111110110101110101011001010011111011001001111000011101111101101111011010
173-31 [256893471489761235317524689728956314193487526564312798942678153675139842831245967 [010011110111101101011110110000101010111011001110100111100011101011010110011111011
174-30 [652971384913584276784326915845792631169435728327618459576843192431259867298167543 [111100111111110001111110100111011101100101111001110010010011101011110111100000110
175-31 [569713428184562937327984516935246781472851693816379254748195362291637845653428179 [100111101111011110111101101001111010011101110010000011100111110010111110001000111
176-31 [895641237132587964467293581576324819281976453943815672624738195759162348318459726 [110101111111011010110011011101010111001010111100111001001111111111001110000010001
177-31 [451796823932458167768231945297863451183945276645127398519684732826379514374512689 [110010110110101101111101011000001011100110100101110110111001011001111111101010111
178-30 [824516739631729458795483621416832597389675142572941863248367915157294386963158274 [111010001111011000101111110111001111101111101110101011110110110011010010011001001
179-31 [543726918217839456698451327752964183984173562136582749469318275871295634325647891 [011101010101111011010100110010111101111110001101011010110110110111101001011011001
180-30 [243197865581236794796845123457362918918574236632981547369718452824659371175423689 [111011000111110101111111001100011111111100101011111010111111100001110000110100001
181-28 [385962174729481365416753982248597613571634298693218547962845731837126459154379826 [110101001110011111111110011001101110110101000100111111110010110011100111111010111
182-28 [628591374943872156751364829495216783216738495837945261389457612562183947174629538 [101111110111001111011100011111001101101110101101110110110001101110110111011001010
183-28 [492685173731942685586317429359276841647891352128453967273164598814529736965738214 [101111001011110011000011011111000111101111110101101101101111110001110011110101101
184-29 [234678951871945362596123847912367485687254139453891726365789214728416593149532678 [110111101101101001010011011011001011101101110110110101110110101111110010101100111
185-29 [725168934614593872398742615261854793957236481843971256439685127186327549572419368 [101100011101111110101101001001011111000101111111011011011110001010110101101111110
186-31 [435927186172368954896145273513679842968432517724581369241896735687253491359714628 [001110100110111100100010010011011011100101011110111100111111100111111001101100111
187-29 [612948735379521846485367912124879653597436128863215479948152367236784591751693284 [010101101110010001001101011101011110111110110111111001110101111110011100111011100
188-29 [247193586513862974869547132125689347698374251374251869936418725752936418481725693 [010111111001111011111000111111111010011011111010100010101011000111110101010001111
189-29 [981526734456837129732149856324791685675284913198365472867953241243618597519472368 [111111001011110111001011011111010001010101110110111010101010011111111100110001011
190-31 [956271438738564921241983657589412376173695284462738195315826749694357812827149563 [111101001100101101101101111111011101010011111111111100100110110001011001100000101
191-30 [721546839689731425534928167815374692967152384243689751156897243498213576372465918 [000111101111010101101011111011111011110011111111011011101100001110001100111100000
192-31 [895361724273548196614729538327856941158934672946172853581493267732685419469217385 [000111111001011100111011110000101111001100001011100111110110011100111011111011110
193-28 [368579124219634578574182936852416397736895412491327685147968253925743861683251749 [011110111001110111111111000111011110010111100011101110101110101101001101110001011
194-30 [897362154351984762462751938129438576578296341634517289713649825286175493945823617 [111010111011011100110011010011101011001011111111110110110001110001110011101100101
195-29 [571682439943715268268439157825194376419376582637258941784923615196547823352861794 [101101111011001110110010111111011110001100110111011011110011001110011100110111001
196-29 [628713594734659218915248736546837129291465873873921465152394687367582941489176352 [010011011110111101111101101011110111101111110110101111100010011101110110001010000
197-28 [967285134358614297421397685572138946819546723634972851243861579195723468786459312 [111110011111011101110111110100111111111111001110010110001001000010110111101100011
198-29 [794185236836492715512736984653971842971824653428563179147659328389247561265318497 [001111111001011000110111101011001111111110110011111011100101110011110110101010100
199-30 [847691532129735468653824197971243856485176923236958714794562381312489675568317249 [111111100010111110101111011001101110000011011011110111101101010001000111110101101
200-28 [198762543745813962623954871974186235381425796256397184567238419439571628812649357 [110111010011100010011001011111101001110110111101001110110111100110101111101111110
201-27 [213798645678524913594316827842965731751283496936147582169452378325879164487631259 [111110111111001111111111001100101000100101100110111110100011101111111111000011011
202-25 [748361259526497381193285674819642537452973168637518492984156723375824916261739845 [011011111111101011110111100100010111111111111111111001111010011011000011111000110
203-27 [718649235495123768326578149972854613643291587851367924189736452564982371237415896 [111111011111011101101110011101011101101011001101111100001101011001111010011110101
204-27 [459871632817263945236954781348517296961428357725639418592146873174382569683795124 [110011101110111101111111111110111110101101101011000001111011110101010100101111000
205-26 [732691584541872639968345712275986341389714256614523897196258473453167928827439165 [111111001111011000111110111110110001111101011010111100111101111001111011010100011
206-27 [794156283581932674326478519157394826863721945249865731678543192412689357935217468 [111111101011001110010110011111110011111110011101111111100100111011101010010001101
207-26 [893741256614825739527963481756389124182574963439612578971236845265498317348157692 [011111101110110010111111011011111111101111011011011010000011010001111111111011000
208-25 [182537496593846712674912385768451239925673148341298567217389654856124973439765821 [100111111100010011111101100101011111101111101111111111100110010010011111011101101
209-25 [415827963972436851368195742751689324239714586846253197683541279594372618127968435 [110101111101011111100111111011010011110111010010011011101111100110111011110110110
210-26 [948527316632189475751346289296478531815293647374615892467851923123964758589732164 [011100010110111111010001101101011110100111101010111010011111011111111101011101111
211-26 [623918475841573269759642183384725691512469837967831524436187952175296348298354716 [011111010111111110111111111111010110111011000101010101111100001010011010011111101
212-25 [487631529365492178192758436634279851271845963958316247516927384749583612823164795 [111111111101111000111111111111100110110011111001011001111101011010010011101100101
213-26 [697583412513724968824196537189632754762451389435879126976215843258347691341968275 [111110111100011110101111101110101111010110010001111101000111101101011001110111111
214-25 [463278519597613248128954637739125864256489371841736925972561483315842796684397152 [101011100111100110110110010111000111110011111101111111111101101111010101111101001
215-24 [241673985698245371753198462829561743567834129314729856935486217476312598182957634 [110111111011000111111111111110110101111111110111011011110011100010011101100010110
216-23 [593714862481652739762938514875261493236849157914573286129387645358426971647195328 [111111111011111000101110110110111011101111110110011011100011010101101111011101111
217-26 [789614532624593718513278964347921685168345297952786143231459876495867321876132459 [111111111101111101011111111111110111011100001000111111110111111000000001111000100
218-24 [789326451352419687641578329236154798198267543475983216563841972827695134914732865 [111110111111111001101111110110111101100111100110111110111100110011010101110110010
219-26 [947321865135468972628597314876954123259613487413782596594176238362849751781235649 [111110101011111111110011111001111011111111111111011110111100110000101001010001000
220-24 [834217569612953874957648231185362947279184653463579182721835496546791328398426715 [111111111111111111111110011111011110110011111001111100111101110000001000001101101
221-24 [268479531354281769197536428821765943635894172749123685972658314483917256516342897 [111001100111111101111111101111101011101011010111100010110100111110100011111011111
222-23 [327546918814329756569781243135268479498157362276934185981672534743895621652413897 [110111110111111101111001111111010111011110100111101110101110111010111110001111000
223-23 [736894215285761934914523876627985341853417629149236587371658492462379158598142763 [111110101111111111111111011111011111101110011110110000101010001011110110011100111
224-24 [539276481682941735741358629465837912297415368813629574978164253126593847354782196 [011101111111111111111011111010100010001011111101111011101011111101101100110110001
225-23 [318794526542368971796125348425931687839647152167852439273519864681473295954286713 [001111101110011101100101101111011111111101111011011111111000011111010111101111100
