%YAML 1.1
%TAG !u! tag:unity3d.com,2011:
--- !u!1045 &1
EditorBuildSettings:
  m_ObjectHideFlags: 0
  serializedVersion: 2
  m_Scenes:
  - enabled: 1
    path: Assets/Scenes/MainMenuScene.unity
    guid: 09f12a442c5afae42a9933f762bfcc22
  - enabled: 1
    path: Assets/Scenes/SudokuScene.unity
    guid: 1712444b60928fe42923a9ff72a2cf0e
  - enabled: 1
    path: Assets/Scenes/BlockScene.unity
    guid: f417018eaa80b1f4385ad207d9a9f2cb
  - enabled: 1
    path: Assets/Scenes/ShuffleScene.unity
    guid: 7fe3c9fa86264e8488bdd7214f3b7b7f
  m_configObjects: {}
